cf_ad9364_ml605_spi_only/chipscope/data export/20160722_bitbang_attempt_1.vcd
$date
   Jul 22, 2016 16:56:03
$end
$version
   ChipScope Pro Analyzer  14.7 P.20131013 (Build 14700.13.286.464)
$end
$timescale
    1ns
$end

$scope module data_read $end
$var wire 1 n0 tx_frame $end
$var wire 12 n1 tx_data_i1_d $end
$var wire 12 n2 tx_data_q1_d $end
$var wire 6 n3 tx_data_p $end
$var wire 6 n4 tx_data_n $end
$var wire 12 n5 dac_data_q1 $end
$var wire 12 n6 dac_data_i1 $end
$var wire 12 n7 rx_data_i_r1 $end
$var wire 12 n8 rx_data_q_r1 $end
$var wire 1 n9 rx_error_r1 $end
$var wire 4 n10 rx_frame_s $end
$var wire 1 n11 adc_valid $end
$var wire 1 n12 dac_valid $end
$var wire 12 n13 adc_data_i1 $end
$var wire 12 n14 adc_data_q1 $end
$var wire 12 n15 rx_data_d $end
$var wire 12 n16 rx_data $end
$var wire 1 n17 rx_error_r1 $end
$upscope $end
$enddefinitions $end

#0
b0 n0
b100100000010 n1
b1011011111 n2
b110100 n3
b101011 n4
b1011011111 n5
b100100000010 n6
b11111111111 n7
b101000 n8
b0 n9
b11 n10
b0 n11
b0 n12
b11110011001 n13
b111101101110 n14
b111111101000 n15
b11110111101 n16
b0 n17
#1
b1 n0
b100100 n3
b1011 n4
b1111101011 n5
b10000110100 n6
b1100 n10
b1 n11
b1 n12
b11111111111 n13
b101000 n14
b11110111101 n15
b11000110001 n16
#2
b0 n0
b10000110100 n1
b1111101011 n2
b10 n3
b11111 n4
b11110011000 n7
b111101110001 n8
b11 n10
b0 n11
b0 n12
b11000110001 n15
b11111000000 n16
#3
b1 n0
b10000 n3
b1111 n4
b1011011111 n5
b100100000010 n6
b1100 n10
b1 n11
b1 n12
b11110011000 n13
b111101110001 n14
b11111000000 n15
b111111110000 n16
#4
b0 n0
b100100000010 n1
b1011011111 n2
b110100 n3
b101011 n4
b11111111111 n7
b110000 n8
b11 n10
b0 n11
b0 n12
b111111110000 n15
b11110111101 n16
#5
b1 n0
b100100 n3
b1011 n4
b1111101011 n5
b10000110100 n6
b1100 n10
b1 n11
b1 n12
b11111111111 n13
b110000 n14
b11110111101 n15
b10011101000 n16
#6
b0 n0
b10000110100 n1
b1111101011 n2
b10 n3
b11111 n4
b11110010011 n7
b111101101000 n8
b11 n10
b0 n11
b0 n12
b10011101000 n15
b11111000000 n16
#7
b1 n0
b10000 n3
b1111 n4
b1011011111 n5
b100100000010 n6
b1100 n10
b1 n11
b1 n12
b11110010011 n13
b111101101000 n14
b11111000000 n15
b111111110000 n16
#8
b0 n0
b100100000010 n1
b1011011111 n2
b110100 n3
b101011 n4
b11111111111 n7
b110000 n8
b11 n10
b0 n11
b0 n12
b111111110000 n15
b11110111101 n16
#9
b1 n0
b100100 n3
b1011 n4
b1111101011 n5
b10000110100 n6
b1100 n10
b1 n11
b1 n12
b11111111111 n13
b110000 n14
b11110111101 n15
b10101101010 n16
#10
b0 n0
b10000110100 n1
b1111101011 n2
b10 n3
b11111 n4
b11110010101 n7
b111101101010 n8
b11 n10
b0 n11
b0 n12
b10101101010 n15
b11111000000 n16
#11
b1 n0
b10000 n3
b1111 n4
b1011011111 n5
b100100000010 n6
b1100 n10
b1 n11
b1 n12
b11110010101 n13
b111101101010 n14
b11111000000 n15
b111111101000 n16
#12
b0 n0
b100100000010 n1
b1011011111 n2
b110100 n3
b101011 n4
b11111111111 n7
b101000 n8
b11 n10
b0 n11
b0 n12
b111111101000 n15
b11110111101 n16
#13
b1 n0
b100100 n3
b1011 n4
b1111101011 n5
b10000110100 n6
b1100 n10
b1 n11
b1 n12
b11111111111 n13
b101000 n14
b11110111101 n15
b10011101011 n16
#14
b0 n0
b10000110100 n1
b1111101011 n2
b10 n3
b11111 n4
b11110010011 n7
b111101101011 n8
b11 n10
b0 n11
b0 n12
b10011101011 n15
b11111000000 n16
#15
b1 n0
b10000 n3
b1111 n4
b1011011111 n5
b100100000010 n6
b1100 n10
b1 n11
b1 n12
b11110010011 n13
b111101101011 n14
b11111000000 n15
b111111100011 n16
#16
b0 n0
b100100000010 n1
b1011011111 n2
b110100 n3
b101011 n4
b11111111111 n7
b100011 n8
b11 n10
b0 n11
b0 n12
b111111100011 n15
b11110111101 n16
#17
b1 n0
b100100 n3
b1011 n4
b1111101011 n5
b10000110100 n6
b1100 n10
b1 n11
b1 n12
b11111111111 n13
b100011 n14
b11110111101 n15
b1111100111 n16
#18
b0 n0
b10000110100 n1
b1111101011 n2
b10 n3
b11111 n4
b11110001111 n7
b111101100111 n8
b11 n10
b0 n11
b0 n12
b1111100111 n15
b11111000000 n16
#19
b1 n0
b10000 n3
b1111 n4
b1011011111 n5
b100100000010 n6
b1100 n10
b1 n11
b1 n12
b11110001111 n13
b111101100111 n14
b11111000000 n15
b111111011110 n16
#20
b0 n0
b100100000010 n1
b1011011111 n2
b110100 n3
b101011 n4
b11111111111 n7
b11110 n8
b11 n10
b0 n11
b0 n12
b111111011110 n15
b11110111101 n16
#21
b1 n0
b100100 n3
b1011 n4
b1111101011 n5
b10000110100 n6
b1100 n10
b1 n11
b1 n12
b11111111111 n13
b11110 n14
b11110111101 n15
b10001110000 n16
#22
b0 n0
b10000110100 n1
b1111101011 n2
b10 n3
b11111 n4
b11110010001 n7
b111101110000 n8
b11 n10
b0 n11
b0 n12
b10001110000 n15
b11111000000 n16
#23
b1 n0
b10000 n3
b1111 n4
b1011011111 n5
b100100000010 n6
b1100 n10
b1 n11
b1 n12
b11110010001 n13
b111101110000 n14
b11111000000 n15
b111111011001 n16
#24
b0 n0
b100100000010 n1
b1011011111 n2
b110100 n3
b101011 n4
b11111111111 n7
b11001 n8
b11 n10
b0 n11
b0 n12
b111111011001 n15
b11110111101 n16
#25
b1 n0
b100100 n3
b1011 n4
b1111101011 n5
b10000110100 n6
b1100 n10
b1 n11
b1 n12
b11111111111 n13
b11001 n14
b11110111101 n15
b10010101111 n16
#26
b0 n0
b10000110100 n1
b1111101011 n2
b10 n3
b11111 n4
b11110010010 n7
b111101101111 n8
b11 n10
b0 n11
b0 n12
b10010101111 n15
b11111000000 n16
#27
b1 n0
b10000 n3
b1111 n4
b1011011111 n5
b100100000010 n6
b1100 n10
b1 n11
b1 n12
b11110010010 n13
b111101101111 n14
b11111000000 n15
b111111011101 n16
#28
b0 n0
b100100000010 n1
b1011011111 n2
b110100 n3
b101011 n4
b11111111111 n7
b11101 n8
b11 n10
b0 n11
b0 n12
b111111011101 n15
b11110111101 n16
#29
b1 n0
b100100 n3
b1011 n4
b1111101011 n5
b10000110100 n6
b1100 n10
b1 n11
b1 n12
b11111111111 n13
b11101 n14
b11110111101 n15
b10001101101 n16
#30
b0 n0
b10000110100 n1
b1111101011 n2
b10 n3
b11111 n4
b11110010001 n7
b111101101101 n8
b11 n10
b0 n11
b0 n12
b10001101101 n15
b11111000000 n16
#31
b1 n0
b10000 n3
b1111 n4
b1011011111 n5
b100100000010 n6
b1100 n10
b1 n11
b1 n12
b11110010001 n13
b111101101101 n14
b11111000000 n15
b111111100001 n16
